Predicting Consumer Mobile Plan Cancellation
…
canceled_recipe <- 
  recipe(canceled_plan~., data=mobile_carrier_data) |> 
  step_YeoJohnson(all_numeric(), -all_outcomes()) |> 
  step_normalize(all_numeric(), -all_outcomes()) |> 
  step_dummy(all_nominal(), -all_outcomes())

The transformation of the data can be checked, by prepping and baking the data:

Show the code

canceled_recipe |> 
  prep() |> 
  bake(new_data=NULL)

# A tibble: 2,277 × 21
   number_vmail_messages total_day_minutes total_day_calls total_eve_minutes
                   <dbl>             <dbl>           <dbl>             <dbl>
 1                -0.573            0.306           0.223             -0.135
 2                 1.65             1.15            1.44               1.62 
 3                -0.573           -1.23            0.373             -0.658
 4                -0.573           -0.782           0.323              1.08 
 5                 1.76             0.742          -0.760              0.929
 6                -0.573           -0.322           0.273              1.41 
 7                 1.75             0.626           0.827             -0.924
 8                -0.573            2.32            0.273             -1.26 
 9                 1.75            -0.516           0.675             -1.68 
10                -0.573           -0.0351          0.0238             0.201
# … with 2,267 more rows, and 17 more variables: total_eve_calls <dbl>,
#   total_night_minutes <dbl>, total_night_calls <dbl>,
#   total_intl_minutes <dbl>, total_intl_calls <dbl>,
#   number_customer_service_calls <dbl>, canceled_plan <fct>,
#   us_state_region_East.South.Central <dbl>,
#   us_state_region_Mid.Atlantic <dbl>, us_state_region_Mountain <dbl>,
#   us_state_region_New.England <dbl>, us_state_region_Pacific <dbl>, …
…
